185.158.101.140:80
185.158.101.182:80
185.158.102.131:80
185.158.102.186:80
185.158.106.152:80
185.158.106.172:80
185.158.106.189:80
185.158.106.190:80
185.158.107.185:80
191.101.125.200:80
191.101.127.200:80
191.101.127.253:80
192.186.150.11:80
192.186.150.25:80
192.186.150.30:80
192.186.150.6:80
192.186.150.9:80
196.196.160.117:80
196.196.160.157:80
196.196.160.19:80
196.196.160.212:80
196.196.160.225:80
37.114.98.136:80
37.114.98.144:80
37.114.98.62:80
37.114.98.67:80
50.3.197.145:80
50.3.197.177:80
50.3.197.199:80
50.3.197.23:80
50.3.198.111:80
50.3.198.22:80
50.3.198.28:80
50.3.198.32:80
91.108.73.254:80
91.108.87.142:80
91.108.87.171:80
91.108.87.25:80
91.108.87.34:80
91.108.87.49:80
91.108.92.36:80
91.108.92.59:80
91.108.92.91:80
91.108.95.210:80
91.108.95.53:80
91.108.95.86:80
93.127.130.161:80
93.127.131.103:80
93.127.131.26:80
93.127.131.95:80
185.158.101.140:80
185.158.101.182:80
185.158.102.131:80
185.158.102.186:80
185.158.106.152:80
185.158.106.172:80
185.158.106.189:80
185.158.106.190:80
185.158.107.185:80
191.101.125.200:80
191.101.127.200:80
191.101.127.253:80
192.186.150.11:80
192.186.150.25:80
192.186.150.30:80
192.186.150.6:80
192.186.150.9:80
196.196.160.117:80
196.196.160.157:80
196.196.160.19:80
196.196.160.212:80
196.196.160.225:80
37.114.98.136:80
37.114.98.144:80
37.114.98.62:80
37.114.98.67:80
50.3.197.145:80
50.3.197.177:80
50.3.197.199:80
50.3.197.23:80
50.3.198.111:80
50.3.198.22:80
50.3.198.28:80
50.3.198.32:80
91.108.73.254:80
91.108.87.142:80
91.108.87.171:80
91.108.87.25:80
91.108.87.34:80
91.108.87.49:80
91.108.92.36:80
91.108.92.59:80
91.108.92.91:80
91.108.95.210:80
91.108.95.53:80
91.108.95.86:80
93.127.130.161:80
93.127.131.103:80
93.127.131.26:80
93.127.131.95:80
